Lab Meeting Demo – Data Visualization: ggplot part 4
…
Let’s pivot this data, so there is no data stored in variables

heartrate_long <- heartrate %>% 
  pivot_longer(-patient, #patient does not pivot
               names_to = "drug", 
               values_to = "heartrate"
               )
heartrate_long

## # A tibble: 24 × 3
##    patient  drug  heartrate
##    <chr>    <chr>     <dbl>
##  1 Margaret a            72
##  2 Margaret b            74
##  3 Margaret c            80
##  4 Margaret d            68
##  5 Frank    a            84
##  6 Frank    b            84
##  7 Frank    c            88
##  8 Frank    d            76
##  9 Hawkeye  a            64
## 10 Hawkeye  b            66
## # … with 14 more rows
…
fisheries_long$catch <- as.numeric(fisheries_long$catch)

which countries caught a lot of squid in the 90’s?

fisheries_long %>%  
  filter(isscaap_taxonomic_group == "Squids, cuttlefishes, octopuses") %>% 
  filter(between(year, 1990, 1999)) %>%
  group_by(country) %>% 
  summarize(catch_total=sum(catch, na.rm=T)) %>% 
  arrange(desc(catch_total))

## # A tibble: 133 × 2
##    country                  catch_total
##    <fct>                          <dbl>
##  1 Japan                          12718
##  2 Korea, Republic of             11923
##  3 Taiwan Province of China        5583
##  4 Argentina                       4091
##  5 China                           3660
##  6 Mexico                          2965
##  7 Thailand                        2507
##  8 France                          2350
##  9 United States of America        1717
## 10 Spain                           1682
## # … with 123 more rows
…
